{
  "project_info": {
    "project_number": "100238336605",
    "firebase_url": "https://firestorecrud-d732d.firebaseio.com",
    "project_id": "firestorecrud-d732d",
    "storage_bucket": "firestorecrud-d732d.appspot.com"
  },
  "client": [
    {
      "client_info": {
        "mobilesdk_app_id": "1:100238336605:android:41c1ea892025397d9423b4",
        "android_client_info": {
          "package_name": "com.example.ordersmanager"
        }
      },
      "oauth_client": [
        {
          "client_id": "100238336605-o07rdpuonfc1v0uf43e3l2sdbtu5o2d6.apps.googleusercontent.com",
          "client_type": 3
        }
      ],
      "api_key": [
        {
          "current_key": "AIzaSyAwVTaQgTiYFlNsHWnA2_UZU8-fNgyh4dk"
        }
      ],
      "services": {
        "appinvite_service": {
          "other_platform_oauth_client": [
            {
              "client_id": "100238336605-o07rdpuonfc1v0uf43e3l2sdbtu5o2d6.apps.googleusercontent.com",
              "client_type": 3
            },
            {
              "client_id": "100238336605-qt2qdt6aqdki78jbqngm4rnv8puatkj4.apps.googleusercontent.com",
              "client_type": 2,
              "ios_info": {
                "bundle_id": "com.example.ordersManager"
              }
            }
          ]
        }
      }
    }
  ],
  "configuration_version": "1"
}